{
    "experiment_name": "spacing lines sensor far",
    "output_file": "spacing_lines_far.csv",
    "type": "target_shift",
    "start_pos": [-25.0, -25.0, 60.0],
    "end_pos": [25.0, 25.0, 60.0],
    "resolution": 0.25,
    "noise_coefficients": [0.0, 0.0],
    "source_activity": 350000,
    "source": [0.0, 0.0, -5.0],
    "scintilator_size": [20.0, 10.0],
    "blockers": [
        {
            "attenuation": 0.9,
            "shape": {
                "type": "rectangle",
                "center": [0.0, 0.0, 0.0],
                "dimensions": [50.0, 50.0]
            },
            "holes": [
                {
                    "type": "rectangle",
                    "center": [0.0, -17.5, 0.0],
                    "dimensions": [36.0, 1.0]
                },
                {
                    "type": "rectangle",
                    "center": [0.0, -15.5, 0.0],
                    "dimensions": [36.0, 1.0]
                },
                {
                    "type": "rectangle",
                    "center": [0.0, -12.5, 0.0],
                    "dimensions": [36.0, 1.0]
                },
                {
                    "type": "rectangle",
                    "center": [0.0, -8.5, 0.0],
                    "dimensions": [36.0, 1.0]
                },
                {
                    "type": "rectangle",
                    "center": [0.0, -3.5, 0.0],
                    "dimensions": [36.0, 1.0]
                },
                {
                    "type": "rectangle",
                    "center": [0.0, 2.5, 0.0],
                    "dimensions": [36.0, 1.0]
                },
                {
                    "type": "rectangle",
                    "center": [0.0, 9.5, 0.0],
                    "dimensions": [36.0, 1.0]
                },
                {
                    "type": "rectangle",
                    "center": [0.0, 17.5, 0.0],
                    "dimensions": [36.0, 1.0]
                }
            ]
        }
    ]
}

