{
    "experiment_name": "spacing grid sensor mid",
    "output_file": "spacing_grid_mid.csv",
    "type": "target_shift",
    "start_pos": [-25.0, -25.0, 25.0],
    "end_pos": [25.0, 25.0, 25.0],
    "resolution": 0.25,
    "noise_coefficients": [0.0, 0.0],
    "source_activity": 350000,
    "source": [0.0, 0.0, -5.0],
    "scintilator_size": [20.0, 10.0],
    "blockers": [
        {
            "attenuation": 0.9,
            "shape": {
                "type": "rectangle",
                "center": [0.0, 0.0, 0.0],
                "dimensions": [50.0, 50.0]
            },
            "holes": [
                {
                    "type": "ellipse",
                    "center": [-17.5, -17.5, 0.0],
                    "dimensions": [1.0, 1.0]
                },
                {
                    "type": "ellipse",
                    "center": [-17.5, -15.5, 0.0],
                    "dimensions": [1.0, 1.0]
                },
                {
                    "type": "ellipse",
                    "center": [-17.5, -12.5, 0.0],
                    "dimensions": [1.0, 1.0]
                },
                {
                    "type": "ellipse",
                    "center": [-17.5, -8.5, 0.0],
                    "dimensions": [1.0, 1.0]
                },
                {
                    "type": "ellipse",
                    "center": [-17.5, -3.5, 0.0],
                    "dimensions": [1.0, 1.0]
                },
                {
                    "type": "ellipse",
                    "center": [-17.5, 2.5, 0.0],
                    "dimensions": [1.0, 1.0]
                },
                {
                    "type": "ellipse",
                    "center": [-17.5, 9.5, 0.0],
                    "dimensions": [1.0, 1.0]
                },
                {
                    "type": "ellipse",
                    "center": [-17.5, 17.5, 0.0],
                    "dimensions": [1.0, 1.0]
                },
                {
                    "type": "ellipse",
                    "center": [-15.5, -17.5, 0.0],
                    "dimensions": [1.0, 1.0]
                },
                {
                    "type": "ellipse",
                    "center": [-15.5, -15.5, 0.0],
                    "dimensions": [1.0, 1.0]
                },
                {
                    "type": "ellipse",
                    "center": [-15.5, -12.5, 0.0],
                    "dimensions": [1.0, 1.0]
                },
                {
                    "type": "ellipse",
                    "center": [-15.5, -8.5, 0.0],
                    "dimensions": [1.0, 1.0]
                },
                {
                    "type": "ellipse",
                    "center": [-15.5, -3.5, 0.0],
                    "dimensions": [1.0, 1.0]
                },
                {
                    "type": "ellipse",
                    "center": [-15.5, 2.5, 0.0],
                    "dimensions": [1.0, 1.0]
                },
                {
                    "type": "ellipse",
                    "center": [-15.5, 9.5, 0.0],
                    "dimensions": [1.0, 1.0]
                },
                {
                    "type": "ellipse",
                    "center": [-15.5, 17.5, 0.0],
                    "dimensions": [1.0, 1.0]
                },
                {
                    "type": "ellipse",
                    "center": [-12.5, -17.5, 0.0],
                    "dimensions": [1.0, 1.0]
                },
                {
                    "type": "ellipse",
                    "center": [-12.5, -15.5, 0.0],
                    "dimensions": [1.0, 1.0]
                },
                {
                    "type": "ellipse",
                    "center": [-12.5, -12.5, 0.0],
                    "dimensions": [1.0, 1.0]
                },
                {
                    "type": "ellipse",
                    "center": [-12.5, -8.5, 0.0],
                    "dimensions": [1.0, 1.0]
                },
                {
                    "type": "ellipse",
                    "center": [-12.5, -3.5, 0.0],
                    "dimensions": [1.0, 1.0]
                },
                {
                    "type": "ellipse",
                    "center": [-12.5, 2.5, 0.0],
                    "dimensions": [1.0, 1.0]
                },
                {
                    "type": "ellipse",
                    "center": [-12.5, 9.5, 0.0],
                    "dimensions": [1.0, 1.0]
                },
                {
                    "type": "ellipse",
                    "center": [-12.5, 17.5, 0.0],
                    "dimensions": [1.0, 1.0]
                },
                {
                    "type": "ellipse",
                    "center": [-8.5, -17.5, 0.0],
                    "dimensions": [1.0, 1.0]
                },
                {
                    "type": "ellipse",
                    "center": [-8.5, -15.5, 0.0],
                    "dimensions": [1.0, 1.0]
                },
                {
                    "type": "ellipse",
                    "center": [-8.5, -12.5, 0.0],
                    "dimensions": [1.0, 1.0]
                },
                {
                    "type": "ellipse",
                    "center": [-8.5, -8.5, 0.0],
                    "dimensions": [1.0, 1.0]
                },
                {
                    "type": "ellipse",
                    "center": [-8.5, -3.5, 0.0],
                    "dimensions": [1.0, 1.0]
                },
                {
                    "type": "ellipse",
                    "center": [-8.5, 2.5, 0.0],
                    "dimensions": [1.0, 1.0]
                },
                {
                    "type": "ellipse",
                    "center": [-8.5, 9.5, 0.0],
                    "dimensions": [1.0, 1.0]
                },
                {
                    "type": "ellipse",
                    "center": [-8.5, 17.5, 0.0],
                    "dimensions": [1.0, 1.0]
                },
                {
                    "type": "ellipse",
                    "center": [-3.5, -17.5, 0.0],
                    "dimensions": [1.0, 1.0]
                },
                {
                    "type": "ellipse",
                    "center": [-3.5, -15.5, 0.0],
                    "dimensions": [1.0, 1.0]
                },
                {
                    "type": "ellipse",
                    "center": [-3.5, -12.5, 0.0],
                    "dimensions": [1.0, 1.0]
                },
                {
                    "type": "ellipse",
                    "center": [-3.5, -8.5, 0.0],
                    "dimensions": [1.0, 1.0]
                },
                {
                    "type": "ellipse",
                    "center": [-3.5, -3.5, 0.0],
                    "dimensions": [1.0, 1.0]
                },
                {
                    "type": "ellipse",
                    "center": [-3.5, 2.5, 0.0],
                    "dimensions": [1.0, 1.0]
                },
                {
                    "type": "ellipse",
                    "center": [-3.5, 9.5, 0.0],
                    "dimensions": [1.0, 1.0]
                },
                {
                    "type": "ellipse",
                    "center": [-3.5, 17.5, 0.0],
                    "dimensions": [1.0, 1.0]
                },
                {
                    "type": "ellipse",
                    "center": [2.5, -17.5, 0.0],
                    "dimensions": [1.0, 1.0]
                },
                {
                    "type": "ellipse",
                    "center": [2.5, -15.5, 0.0],
                    "dimensions": [1.0, 1.0]
                },
                {
                    "type": "ellipse",
                    "center": [2.5, -12.5, 0.0],
                    "dimensions": [1.0, 1.0]
                },
                {
                    "type": "ellipse",
                    "center": [2.5, -8.5, 0.0],
                    "dimensions": [1.0, 1.0]
                },
                {
                    "type": "ellipse",
                    "center": [2.5, -3.5, 0.0],
                    "dimensions": [1.0, 1.0]
                },
                {
                    "type": "ellipse",
                    "center": [2.5, 2.5, 0.0],
                    "dimensions": [1.0, 1.0]
                },
                {
                    "type": "ellipse",
                    "center": [2.5, 9.5, 0.0],
                    "dimensions": [1.0, 1.0]
                },
                {
                    "type": "ellipse",
                    "center": [2.5, 17.5, 0.0],
                    "dimensions": [1.0, 1.0]
                },
                {
                    "type": "ellipse",
                    "center": [9.5, -17.5, 0.0],
                    "dimensions": [1.0, 1.0]
                },
                {
                    "type": "ellipse",
                    "center": [9.5, -15.5, 0.0],
                    "dimensions": [1.0, 1.0]
                },
                {
                    "type": "ellipse",
                    "center": [9.5, -12.5, 0.0],
                    "dimensions": [1.0, 1.0]
                },
                {
                    "type": "ellipse",
                    "center": [9.5, -8.5, 0.0],
                    "dimensions": [1.0, 1.0]
                },
                {
                    "type": "ellipse",
                    "center": [9.5, -3.5, 0.0],
                    "dimensions": [1.0, 1.0]
                },
                {
                    "type": "ellipse",
                    "center": [9.5, 2.5, 0.0],
                    "dimensions": [1.0, 1.0]
                },
                {
                    "type": "ellipse",
                    "center": [9.5, 9.5, 0.0],
                    "dimensions": [1.0, 1.0]
                },
                {
                    "type": "ellipse",
                    "center": [9.5, 17.5, 0.0],
                    "dimensions": [1.0, 1.0]
                },
                {
                    "type": "ellipse",
                    "center": [17.5, -17.5, 0.0],
                    "dimensions": [1.0, 1.0]
                },
                {
                    "type": "ellipse",
                    "center": [17.5, -15.5, 0.0],
                    "dimensions": [1.0, 1.0]
                },
                {
                    "type": "ellipse",
                    "center": [17.5, -12.5, 0.0],
                    "dimensions": [1.0, 1.0]
                },
                {
                    "type": "ellipse",
                    "center": [17.5, -8.5, 0.0],
                    "dimensions": [1.0, 1.0]
                },
                {
                    "type": "ellipse",
                    "center": [17.5, -3.5, 0.0],
                    "dimensions": [1.0, 1.0]
                },
                {
                    "type": "ellipse",
                    "center": [17.5, 2.5, 0.0],
                    "dimensions": [1.0, 1.0]
                },
                {
                    "type": "ellipse",
                    "center": [17.5, 9.5, 0.0],
                    "dimensions": [1.0, 1.0]
                },
                {
                    "type": "ellipse",
                    "center": [17.5, 17.5, 0.0],
                    "dimensions": [1.0, 1.0]
                }
            ]
        }
    ]
}

